Climate AEMET Tools • climaemet
…
library(climaemet)
#> 
#> Welcome to climaemet (1.0.0.9000)
#> Note that since climaemet (>=1.0.0) the results are provided on tibble format. Run `climaemet_news()` to see the changelog.
#> If you experience any problem open an issue on https://github.com/rOpenSpain/climaemet/issues
#> 
#> 
#> AEMET_API_KEY variable detected on this session.

See how a tibble is displayed:

# See a tibble in action

aemet_last_obs("9434")
#> # A tibble: 24 x 25
#>    idema   lon fint                 prec   alt  vmax    vv    dv   lat  dmax
#>    <chr> <dbl> <dttm>              <dbl> <dbl> <dbl> <dbl> <dbl> <dbl> <dbl>
#>  1 9434  -1.00 2021-04-14 10:00:00     0   249   3     1.4   101  41.7   108
#>  2 9434  -1.00 2021-04-14 11:00:00     0   249   5.4   1.5   122  41.7   180
#>  3 9434  -1.00 2021-04-14 12:00:00     0   249   3.6   1.4   140  41.7   100
#>  4 9434  -1.00 2021-04-14 13:00:00     0   249   3.9   1.6   100  41.7   135
#>  5 9434  -1.00 2021-04-14 14:00:00     0   249   4     1.3    60  41.7   115
#>  6 9434  -1.00 2021-04-14 15:00:00     0   249   4.2   2.3   128  41.7    55
#>  7 9434  -1.00 2021-04-14 16:00:00     0   249   4.1   2.2   107  41.7   113
#>  8 9434  -1.00 2021-04-14 17:00:00     0   249   2.7   0.9   138  41.7   120
#>  9 9434  -1.00 2021-04-14 18:00:00     0   249   3.7   1.2    93  41.7   115
#> 10 9434  -1.00 2021-04-14 19:00:00     0   249   1.9   0.9    69  41.7    78
#> # … with 14 more rows, and 15 more variables: ubi <chr>, pres <dbl>, hr <dbl>,
#> #   stdvv <dbl>, ts <dbl>, pres_nmar <dbl>, tamin <dbl>, ta <dbl>, tamax <dbl>,
#> #   tpr <dbl>, stddv <dbl>, inso <dbl>, tss5cm <dbl>, pacutp <dbl>,
#> #   tss20cm <dbl>
…
